{
    "title": "Domain For Sale",
    "subTitle": "Are you interested ?",
    "button": "Ask More",
    "cards": [
      {
        "img": {
          "src":"assets/IT-consulting-services-ibs.png",
          "alt": "IT-consulting-services-ibs"
        },
        "title":"IT Consulting Services",
        "text":"23+ years in IT business serving from A to Z in information technology, consultancy and system integration services.",
        "link": "https://www.ibs.gr/information-technology-services/",
        "more": "Read more..."
      },
      {
        "img": {
         "src": "assets/web-development-ico-ibs.png",
         "alt": "web-development-ico-ibs"
        },
        "title":"Web Development",
        "text":"Design, development, integration, maintenance, and other services to drive e-cooperation with customers, partners, and community members.",
        "link":"https://www.ibs.gr/web-development-wordpress-experts/",
        "more":"Read more..."
      },
      {
        "img": {
          "src": "assets/software-development-ico-ibs.png",
          "alt": "software-development-ico-ibs"
        },
        "title":"Software Development",
        "text":"We offer full-cycle development services for web, mobile and desktop that have already brought value to industry local leaders.",
        "link":"https://www.ibs.gr/software-development/",
        "more":"Read more..."
      },
      {
        "img": {
          "src": "assets/cloud-hosting-ico-ibs.png",
          "alt": "cloud-hosting-ico-ibs"
        },
        "title":"Hosting Services",
        "text":"iBS offers website cloud hosting services, including cost-effective website starter plans, flexible shared hosting and robust virtual private server hosting (VPS).",
        "link":"https://www.ibs.gr/website-cloud-hosting-services/",
        "more":"Read more..."
      }

    ],
    "seo": {
      "title": "iBS | Informatics Business Services in Piraeus - iBS | Informatics Business Services",
      "description": "iBS’s offering embraces the synergy of information technology consulting services along with custom software development and platform-based customization.",
      "keywords": "iBS,Informatics Business Services,software,hosting,support,ibs"
    }
}
