{
    "title": "Domain For Sale",
    "subTitle":"Ενδιαφέρεσαι?",
    "button": "Περισσοτερα",
    "cards": [
      {
        "img": {
         "src": "assets/IT-consulting-services-ibs.png",
         "alt": "IT-consulting-services-ibs"
        },
        "title":"Υπηρεσίες IT",
        "text":"23+ χρόνια στην Πληροφορική, προσφέρουμε από το Α έως το Ω τεχνικές υπηρεσίες ολοκλήρωσης πληροφοριακών συστημάτων.",
        "link":"https://www.ibs.gr/el/ypiresies-pliroforikis/",
        "more":"Διαβάστε περισσότερα..."
      },
      {
        "img": {
            "src": "assets/web-development-ico-ibs.png",
            "alt":"web-development-ico-ibs"
        },
        "title":"Ανάπτυξη Web",
        "text":"Σχεδιασμός, Υλοποίηση, Συντήρηση και Υποστήριξη έτσι ώστε να ενισχύσουμε την λειτουργικότητα ιστοτόπων και ηλεκτρονικών καταστημάτων.",
        "link":"https://www.ibs.gr/el/paragogi-istotopon/",
        "more":"Διαβάστε περισσότερα..."
      },
      {
        "img": {
            "src": "assets/software-development-ico-ibs.png",
            "alt": "software-development-ico-ibs"
        },
        "title":"Ανάπτυξη Λογισμικού",
        "text":"Προσφέρουμε υπηρεσίες ανάλυσης, σχεδιασμού και υλοποίησης λογισμικού για κάθε τύπου συσκευές και επαγγελματικό εξοπλισμό διεθνών κατασκευαστών όπως της Bosch.",
        "link":"https://www.ibs.gr/el/anaptyxi-logismikoy/",
        "more":"Διαβάστε περισσότερα..."
      },
      {
        "img": {
            "src": "assets/cloud-hosting-ico-ibs.png",
            "alt": "cloud-hosting-ico-ibs"
        },
        "title": "Υπηρεσίες Hosting",
        "text": "Προσφέρουμε υπηρεσίες φιλοξενίας εξυπηρετητών, ευέλικτες λύσεις για μικρούς ιστότοπους, και προσαρμοσμένες στις ανάγκες σας σύνθετες επιλογές εξυπηρετητών.",
        "link": "https://www.ibs.gr/el/filoksenia-istoselidon/",
        "more": "Διαβάστε περισσότερα..."
      }
    ],
    "seo": {
        "title": "iBS | Συστήματα Πληροφορικής - iBS | Informatics Business Services",
        "description": "Η iBS προσφέρει συμβουλευτικές υπηρεσίες πληροφορικής σε συνδυασμό με την ανάπτυξη προσαρμοσμένων λύσεων λογισμικού.",
        "keywords": "iBS,Informatics Business Services,software,hosting,support,ibs"

    }
  }